{
    "m_Dictionary": {
        "m_DictionaryValues": [
            {
                "type": "System.Int32, mscorlib, Version=4.0.0.0, Culture=neutral, PublicKeyToken=b77a5c561934e089",
                "key": "General.EditorStartupSceneIndex",
                "value": "{\"m_Value\":-1}"
            }
        ]
    }
}